^C:\USERS\DRBRI_000\DOCUMENTS\VISUAL STUDIO 2015\PROJECTS\CPPTESTING\CPPTESTING\DEBUG\CARD.OBJ|C:\USERS\DRBRI_000\DOCUMENTS\VISUAL STUDIO 2015\PROJECTS\CPPTESTING\CPPTESTING\DEBUG\DECK.OBJ|C:\USERS\DRBRI_000\DOCUMENTS\VISUAL STUDIO 2015\PROJECTS\CPPTESTING\CPPTESTING\DEBUG\HAND.OBJ|C:\USERS\DRBRI_000\DOCUMENTS\VISUAL STUDIO 2015\PROJECTS\CPPTESTING\CPPTESTING\DEBUG\MAIN.OBJ
C:\USERS\DRBRI_000\DOCUMENTS\VISUAL STUDIO 2015\PROJECTS\CPPTESTING\DEBUG\CPPTESTING.ILK
C:\USERS\DRBRI_000\DOCUMENTS\VISUAL STUDIO 2015\PROJECTS\CPPTESTING\DEBUG\CPPTESTING.EXE
C:\USERS\DRBRI_000\DOCUMENTS\VISUAL STUDIO 2015\PROJECTS\CPPTESTING\DEBUG\CPPTESTING.PDB
